<?xml version="1.0" encoding="utf-8"?>
<!-- Generator: Adobe Illustrator 19.0.1, SVG Export Plug-In . SVG Version: 6.00 Build 0)  -->
<svg version="1.1" id="Слой_1" xmlns="http://www.w3.org/2000/svg" xmlns:xlink="http://www.w3.org/1999/xlink" x="0px" y="0px"
	 viewBox="0 0 600.5 93" style="enable-background:new 0 0 600.5 93;" xml:space="preserve">
<style type="text/css">
	.st0{fill:none;}
	.st1{fill:#4A4A4A;}
</style>
<g>
	<path class="st0" d="M310.1,36.8c-1.3-1.2-2.8-2.1-4.5-2.8c-1.7-0.7-3.5-1-5.4-1c-2,0-3.8,0.3-5.5,1c-1.7,0.7-3.2,1.6-4.5,2.8
		c-1.3,1.2-2.3,2.6-3,4.3c-0.7,1.7-1.1,3.5-1.1,5.4c0,2,0.4,3.8,1.1,5.4c0.7,1.7,1.7,3.1,3,4.3c1.3,1.2,2.8,2.1,4.5,2.8
		c1.7,0.7,3.5,1,5.5,1c1.9,0,3.7-0.3,5.4-1c1.7-0.7,3.2-1.6,4.5-2.8c1.3-1.2,2.3-2.6,3.1-4.3c0.8-1.7,1.1-3.5,1.1-5.4
		c0-2-0.4-3.8-1.1-5.4C312.4,39.4,311.4,38,310.1,36.8z"/>
	<path class="st0" d="M310.1,36.8c-1.3-1.2-2.8-2.1-4.5-2.8c-1.7-0.7-3.5-1-5.4-1c-2,0-3.8,0.3-5.5,1c-1.7,0.7-3.2,1.6-4.5,2.8
		c-1.3,1.2-2.3,2.6-3,4.3c-0.7,1.7-1.1,3.5-1.1,5.4c0,2,0.4,3.8,1.1,5.4c0.7,1.7,1.7,3.1,3,4.3c1.3,1.2,2.8,2.1,4.5,2.8
		c1.7,0.7,3.5,1,5.5,1c1.9,0,3.7-0.3,5.4-1c1.7-0.7,3.2-1.6,4.5-2.8c1.3-1.2,2.3-2.6,3.1-4.3s1.2-3.5,1.2-5.4c0-2-0.4-3.8-1.2-5.4
		C312.4,39.4,311.4,38,310.1,36.8z"/>
	<g>
		<path class="st0" d="M480.4,36.7c-1.3-1.2-2.8-2.1-4.5-2.8c-1.7-0.7-3.5-1-5.4-1c-2,0-3.8,0.3-5.5,1c-1.7,0.7-3.2,1.6-4.5,2.8
			c-1.3,1.2-2.3,2.6-3,4.3c-0.7,1.7-1.1,3.5-1.1,5.4c0,2,0.4,3.8,1.1,5.4c0.7,1.7,1.7,3.1,3,4.3c1.3,1.2,2.8,2.1,4.5,2.8
			c1.7,0.7,3.5,1,5.5,1c1.9,0,3.7-0.3,5.4-1c1.7-0.7,3.2-1.6,4.5-2.8c1.3-1.2,2.3-2.6,3.1-4.3c0.8-1.7,1.1-3.5,1.1-5.4
			c0-2-0.4-3.8-1.1-5.4C482.7,39.3,481.7,37.9,480.4,36.7z"/>
		<path class="st0" d="M128.1,36.6c-1.3-1.2-2.8-2.1-4.5-2.8c-1.7-0.7-3.5-1-5.4-1c-2,0-3.8,0.3-5.5,1c-1.7,0.7-3.2,1.6-4.5,2.8
			c-1.3,1.2-2.3,2.6-3,4.3c-0.7,1.7-1.1,3.5-1.1,5.4c0,2,0.4,3.8,1.1,5.4c0.7,1.7,1.7,3.1,3,4.3c1.3,1.2,2.8,2.1,4.5,2.8
			c1.7,0.7,3.5,1,5.5,1c1.9,0,3.7-0.3,5.4-1c1.7-0.7,3.2-1.6,4.5-2.8c1.3-1.2,2.3-2.6,3.1-4.3s1.2-3.5,1.2-5.4c0-2-0.4-3.8-1.2-5.4
			C130.4,39.2,129.4,37.8,128.1,36.6z"/>
		<polygon class="st1" points="1,91.5 35,91.5 35,65.5 61,65.5 61,40.5 35,40.5 35,30.5 68,30.5 68,2.5 1,2.5 		"/>
		<path class="st1" d="M168.1,46.3c0-6.3-1.2-12.2-3.6-17.6c-2.4-5.4-5.8-10.2-10.2-14.3c-4.4-4.1-9.7-7.2-15.8-9.5
			c-6.1-2.3-12.9-3.4-20.2-3.4c-7.3,0-14.1,1.1-20.2,3.4c-6.1,2.3-11.4,5.5-15.8,9.5c-4.4,4.1-7.8,8.8-10.2,14.3
			c-2.4,5.4-3.6,11.3-3.6,17.6c0,6.3,1.2,12.2,3.6,17.6c2.4,5.4,5.8,10.2,10.2,14.3c4.4,4.1,9.7,7.2,15.8,9.5s12.9,3.4,20.2,3.4
			c7.3,0,14.1-1.1,20.2-3.4c6.1-2.3,11.4-5.5,15.8-9.5c4.4-4.1,7.8-8.8,10.2-14.3C166.9,58.5,168.1,52.6,168.1,46.3z M131.2,51.7
			c-0.8,1.7-1.8,3.1-3.1,4.3c-1.3,1.2-2.8,2.1-4.5,2.8c-1.7,0.7-3.5,1-5.4,1c-2,0-3.8-0.3-5.5-1c-1.7-0.7-3.2-1.6-4.5-2.8
			c-1.3-1.2-2.3-2.6-3-4.3c-0.7-1.7-1.1-3.5-1.1-5.4c0-2,0.4-3.8,1.1-5.4c0.7-1.7,1.7-3.1,3-4.3c1.3-1.2,2.8-2.1,4.5-2.8
			c1.7-0.7,3.5-1,5.5-1c1.9,0,3.7,0.3,5.4,1c1.7,0.7,3.2,1.6,4.5,2.8c1.3,1.2,2.3,2.6,3.1,4.3c0.8,1.7,1.2,3.5,1.2,5.4
			C132.3,48.3,131.9,50.1,131.2,51.7z"/>
		<rect x="407" y="2.5" class="st1" width="25" height="89"/>
		<path class="st1" d="M516.7,64c2.4-5.4,3.7-11.3,3.7-17.6s-1.2-12.2-3.6-17.6c-2.4-5.5-5.8-10.2-10.2-14.3
			c-4.4-4-9.6-7.2-15.8-9.5c-6.1-2.3-12.9-3.4-20.2-3.4c-7.3,0-14.4,1.1-20.6,3.4c-5.1,1.9-10,4.5-14,7.7v67.5c4,3.2,8.8,5.7,14,7.7
			c6.1,2.3,13.1,3.4,20.4,3.4c7.3,0,14.1-1.1,20.3-3.4c6.1-2.3,11.5-5.5,15.8-9.5C510.9,74.2,514.3,69.5,516.7,64z M483.5,51.8
			c-0.8,1.7-1.8,3.1-3.1,4.3c-1.3,1.2-2.8,2.1-4.5,2.8c-1.7,0.7-3.5,1-5.4,1c-2,0-3.8-0.3-5.5-1c-1.7-0.7-3.2-1.6-4.5-2.8
			c-1.3-1.2-2.3-2.6-3-4.3c-0.7-1.7-1.1-3.5-1.1-5.4c0-2,0.4-3.8,1.1-5.4c0.7-1.7,1.7-3.1,3-4.3c1.3-1.2,2.8-2.1,4.5-2.8
			c1.7-0.7,3.5-1,5.5-1c1.9,0,3.7,0.3,5.4,1c1.7,0.7,3.2,1.6,4.5,2.8c1.3,1.2,2.3,2.6,3.1,4.3c0.8,1.7,1.1,3.5,1.1,5.4
			C484.6,48.3,484.2,50.1,483.5,51.8z"/>
		<path class="st1" d="M567,2.5v38.7L545.2,2.5H508v9.9c1,0.7,1.7,1.3,2.4,2c4.4,4.1,7.8,8.8,10.3,14.3c2.4,5.4,3.7,11.3,3.7,17.6
			s-1.2,12.2-3.6,17.6c-2.4,5.5-5.9,10.2-10.3,14.3c-0.8,0.7-1.4,1.4-2.4,2v11.3h33V51.4l22.1,40.1H600v-89H567z"/>
		<path class="st1" d="M370,41.4L348.1,2.5H327v46.3c0,6.2-1,12-3.2,17.1c-2.1,5.2-5.2,9.7-9,13.4c-1.2,1.1-1.8,2.2-3.8,3.2v8.9h34
			V51.6l20.8,39.9H403v-89h-33V41.4z"/>
		<path class="st1" d="M323,49V2.5h-33v46c0,3.5-1,6.2-2.9,8.2s-4.4,3-7.3,3c-2.9,0-5.1-1-7.1-3c-2-2-2.7-4.7-2.7-8.2v-46h-16.8
			l0.2-0.1L237,28.7V49c0,6.3,0.8,12,3,17.2c2.1,5.2,5,9.7,8.8,13.5c3.8,3.8,8.3,6.7,13.6,8.8c5.3,2.1,11.1,3.1,17.5,3.1
			s12.2-1,17.5-3.1c5.3-2.1,9.9-5,13.7-8.8c3.8-3.8,6.8-8.2,8.9-13.5C322,61,323,55.2,323,49z"/>
		<polygon class="st1" points="221,47.1 220.5,46.4 248.1,2.4 248.2,2.5 211.6,2.5 211.5,2.4 202.4,17.2 193.3,2.5 156.9,2.5 
			184,46.4 183.6,47.1 183.5,47 156.1,91.2 156,91.5 192.6,91.5 192.7,91.2 201.7,76.6 202.2,75.8 202.6,76.5 211.5,91.2 
			211.6,91.5 248,91.5 247.9,91.1 		"/>
	</g>
</g>
</svg>
