<?xml version="1.0" encoding="utf-8"?>
<!-- Generator: Adobe Illustrator 19.0.1, SVG Export Plug-In . SVG Version: 6.00 Build 0)  -->
<svg version="1.1" id="Слой_1" xmlns="http://www.w3.org/2000/svg" xmlns:xlink="http://www.w3.org/1999/xlink" x="0px" y="0px"
	 viewBox="300.8 97.6 74.8 79" style="enable-background:new 300.8 97.6 74.8 79;" xml:space="preserve">
<style type="text/css">
	.st0{fill:none;}
</style>
<title>Asset 6</title>
<g>
	<path class="st0" d="M326.7,135.9c-3.2,7.8,3.9,20.9,3.9,20.9h4.1v-23.6C334.7,133.2,329.4,129.5,326.7,135.9z"/>
	<path class="st0" d="M317.5,136.3c0,0-5.9,0.5-6.6,7.2c-0.6,6.7,4.7,13.2,4.7,13.2h6.8C314.3,147.4,317.5,136.3,317.5,136.3z"/>
	<path class="st0" d="M341.5,133.2v23.6h4.1c0,0,7.1-13.1,3.9-20.9C346.9,129.5,341.5,133.2,341.5,133.2z"/>
	<path class="st0" d="M358.8,136.3c0,0,3.2,11.1-5,20.4h6.8c0,0,5.4-6.6,4.7-13.2C364.7,136.8,358.8,136.3,358.8,136.3z"/>
	<polygon points="311.2,163.1 311.2,172.8 338.1,172.8 365.1,172.8 365.1,163.1 338.1,163.1 	"/>
	<polygon points="311.2,174.1 311.2,176.4 338.1,176.4 365.1,176.4 365.1,174.1 338.1,174.1 	"/>
	<path d="M375.1,141.7c-3.2-15.4-16.9-11.6-16.9-11.6c-6.5-8.4-14.9-5.6-18.4-3.9v-4.7h2.4v-2.2h-2.4c0.3-1.8,1.4-4,3.6-3.8
		c2.3,0.2,3.4,4.3,3.4,4.3c5.6-2.7,3.4-9-0.7-9.7c-4.1-0.7-6.6,4.5-6.6,4.5v-3l2.7-5.9l-4.1-7.7l-4.1,7.7l2.7,5.9v3
		c0,0-2.5-5.2-6.6-4.5c-4.1,0.7-6.3,7.1-0.7,9.7c0,0,1.1-4,3.4-4.3c2.2-0.2,3.3,2,3.6,3.8H334v2.2h2.4v4.7
		c-3.5-1.8-11.8-4.6-18.4,3.9c0,0-13.7-3.8-16.9,11.6c-2.3,11.2,10,19.1,10,19.1v1.1h27h27v-1.1
		C365.1,160.8,377.4,152.9,375.1,141.7z M315.6,156.8c0,0-5.4-6.6-4.7-13.2c0.6-6.7,6.6-7.2,6.6-7.2s-3.2,11.1,5,20.4H315.6z
		 M334.7,156.8h-4.1c0,0-7.1-13.1-3.9-20.9c2.6-6.4,8-2.7,8-2.7L334.7,156.8L334.7,156.8z M345.7,156.8h-4.1v-23.6
		c0,0,5.3-3.7,8,2.7C352.7,143.7,345.7,156.8,345.7,156.8z M360.6,156.8h-6.8c8.1-9.3,5-20.4,5-20.4s5.9,0.5,6.6,7.2
		C366,150.2,360.6,156.8,360.6,156.8z"/>
</g>
</svg>
