<?xml version="1.0" encoding="utf-8"?>
<!-- Generator: Adobe Illustrator 19.0.1, SVG Export Plug-In . SVG Version: 6.00 Build 0)  -->
<svg version="1.1" id="Слой_1" xmlns="http://www.w3.org/2000/svg" xmlns:xlink="http://www.w3.org/1999/xlink" x="0px" y="0px"
	 viewBox="0 0 60.1 51.8" style="enable-background:new 0 0 60.1 51.8;" xml:space="preserve">
<g>
	<path d="M25.5,51.7c-1.4-1.4-3-2.2-4.9-2.5c-1.2-0.2-2.3-0.5-3.4-0.7c-0.2,0-0.4,0-0.6,0.1c-0.3,0.1-0.5,0.4-0.8,0.5
		c-1.2,0.7-2.3,0.6-3.5,0c0.9-1.1,2.1-1.4,3.4-1.4c-0.4-0.5-0.8-0.9-1.1-1.4c-0.3-0.5-0.5-1-0.5-1.7c1.2,0.3,2.2,0.8,2.6,2.1
		c0.3,0.8,0.8,1.3,1.7,1.5c1.2,0.2,2.5,0.4,3.7,0.6c1.3,0.2,2.6,0.7,3.7,1.3c0.7,0.4,0.7,0.7,0.3,1.3c-0.1,0.1-0.1,0.2-0.2,0.3
		C25.7,51.7,25.6,51.7,25.5,51.7z"/>
	<path d="M34.4,51.7c-0.9-1.3-0.6-1.3,0.4-1.8c1.6-0.8,3.3-1.2,5-1.4c0.7-0.1,1.4-0.2,2-0.3c0.8-0.1,1.3-0.6,1.6-1.4
		c0.4-1.2,1.4-1.9,2.6-2.1c-0.1,1.3-0.7,2.2-1.8,3c1.4,0,2.6,0.3,3.6,1.4C47,49.6,46,49.9,45,49.5c-0.5-0.2-0.9-0.5-1.4-0.8
		c-0.2-0.1-0.4-0.2-0.6-0.2c-1.4,0.3-2.9,0.6-4.3,0.9c-1.6,0.3-2.9,1.2-4.1,2.3C34.5,51.7,34.4,51.7,34.4,51.7z"/>
	<path d="M0.4,34.8c1.1,0,2.1,0.4,2.9,1.4c0-1.2,0.3-2.1,1.1-3c0.8,0.8,0.9,2.4,0.2,3.2c-0.8,0.9-2.4,1-3.3,0.2
		c-0.4-0.4-0.6-1-1-1.5C0.4,35,0.4,34.9,0.4,34.8z"/>
	<path d="M59.8,35.1c-0.1,0.3-0.2,0.5-0.3,0.8c-0.5,0.8-1.2,1.3-2.2,1.3c-1.5,0-2.4-1.2-2.1-2.7c0.1-0.4,0.3-0.9,0.5-1.4
		c0.8,0.9,1.2,1.9,1.2,3c0.8-0.9,1.8-1.3,2.9-1.4C59.8,34.9,59.8,35,59.8,35.1z"/>
	<path d="M1.5,30c0.6,0.7,1.1,1.4,1.2,2.3c0.1,0.6,0,1.2,0,1.8c-1-0.2-1.8-1-1.7-2.1C1,31.4,1.3,30.7,1.5,30C1.4,30,1.5,30,1.5,30z"
		/>
	<path d="M58.7,30c0.4,0.8,0.6,1.7,0.3,2.6c-0.2,0.8-0.8,1.4-1.7,1.5c-0.3-1.4,0-2.7,0.9-3.8C58.4,30.3,58.5,30.1,58.7,30
		C58.7,30,58.7,30,58.7,30z"/>
	<path d="M9.8,44.5c-0.7-1.3-0.9-2.2-0.4-3.3c0.9,0.6,1.7,1.3,1.7,2.5c0,0.9-0.8,1.9-1.6,2.2c-1.3,0.4-2.3-0.2-3.3-1
		c0.6-0.4,1.2-0.7,1.8-0.7C8.6,44.3,9.2,44.4,9.8,44.5z"/>
	<path d="M50.7,41.2c0.4,1.2,0.4,2.3-0.5,3.4c1.4-0.5,2.5-0.4,3.7,0.3c-0.5,0.8-2.2,1.4-3.1,1.1c-0.9-0.3-1.7-1.5-1.7-2.5
		C49,42.7,49.8,41.7,50.7,41.2z"/>
	<path d="M7.2,38.7c0.6,0.8,1.1,1.6,1.1,2.6c0,1.3-1.4,2.4-2.8,2.1c-0.9-0.2-1.6-0.7-2.1-1.4c0.8-0.5,2-0.5,3.5,0
		C6.3,40.9,6.6,39.8,7.2,38.7z"/>
	<path d="M56.8,42c-0.8,1.4-2.5,1.9-3.8,1.2c-0.8-0.5-1.2-1.3-1.1-2.2c0.1-0.8,0.5-1.5,1-2.2c0.7,0.8,0.8,1.8,0.4,3.3
		C54.9,41.5,55.6,41.5,56.8,42z"/>
	<path d="M8.9,47.2c1.1-0.8,2.3-0.8,3.7-0.4c-0.8-1.1-0.9-2.2-0.7-3.4c0.8,0.2,1.6,1.3,1.8,2.3c0.1,0.9-0.5,1.9-1.4,2.3
		C11.2,48.6,9.9,48.2,8.9,47.2z"/>
	<path d="M51.2,47.2c-0.9,1-2.2,1.4-3.2,1c-1-0.4-1.6-1.3-1.6-2.2c0-1,0.8-2.2,1.8-2.5c0.2,1.2,0.2,2.3-0.7,3.4
		C48.8,46.4,50,46.4,51.2,47.2z"/>
	<path d="M5.8,36.2c0.3,1,0.5,2,0.2,3c-0.5,1.3-2.3,1.7-3.4,0.8c-0.6-0.5-0.9-1.1-1-1.9c1.1,0.1,2,0.6,2.9,1.2
		C4.4,38.1,5,37.1,5.8,36.2z"/>
	<path d="M54.4,36.3c0.8,0.8,1.4,1.7,1.3,3c0.9-0.7,1.8-1.1,2.8-1.3c0.1,1.1-0.9,2.2-1.8,2.4c-1.5,0.4-2.8-0.6-2.8-2.1
		c0-0.7,0.1-1.3,0.2-2C54.2,36.3,54.3,36.3,54.4,36.3z"/>
</g>
<g>
	<path d="M26.5,37.2h-4.2V22.9l-3.9,2.4l-1.9-2.9l6.2-3.8h3.8V37.2z"/>
	<path d="M43.7,28c0,6.2-2.4,9.6-6.9,9.6s-6.9-3.5-6.9-9.6c0-6.2,2.4-9.6,6.9-9.6S43.7,21.8,43.7,28z M34.2,28
		c0,4.9,0.7,6.5,2.5,6.5c1.8,0,2.5-1.5,2.5-6.5c0-5-0.8-6.4-2.5-6.4C34.9,21.6,34.2,23.1,34.2,28z"/>
</g>
<g>
	<path d="M18.6,6.2h-1.3l-0.2-2.4c-0.1-0.7-0.1-1.3,0-2.2L16,5.6h-1.2l-1.1-3.9c0,0.8,0,1.5,0,2.2l-0.2,2.4h-1.3l0.5-5.8h1.7
		l0.9,3.9l1-3.9h1.7L18.6,6.2z"/>
	<path d="M26.4,3.7h-3.7c0.1,1.2,0.7,1.6,1.4,1.6c0.5,0,0.9-0.2,1.5-0.5l0.6,0.8c-0.6,0.5-1.3,0.8-2.2,0.8c-1.8,0-2.8-1.2-2.8-3
		c0-1.8,0.9-3.1,2.6-3.1c1.6,0,2.6,1.1,2.6,2.9C26.4,3.3,26.4,3.6,26.4,3.7z M25,2.8c0-1-0.3-1.5-1.1-1.5c-0.7,0-1.1,0.4-1.2,1.6
		L25,2.8L25,2.8z"/>
	<path d="M33.6,0.9l-0.6,0.8c-0.4-0.3-0.7-0.4-1.2-0.4c-0.8,0-1.3,0.6-1.3,2c0,1.4,0.5,1.9,1.3,1.9c0.4,0,0.7-0.1,1.2-0.4l0.6,0.9
		c-0.5,0.4-1.1,0.7-1.9,0.7c-1.7,0-2.7-1.2-2.7-3s1-3.1,2.7-3.1C32.4,0.2,33,0.4,33.6,0.9z"/>
	<path d="M40.4,1.5h-1.7v4.7h-1.4V1.5h-1.8V0.4h5.1L40.4,1.5z"/>
	<path d="M47.8,3.3c0,1.8-1,3.1-2.7,3.1s-2.7-1.2-2.7-3.1c0-1.8,1-3.1,2.8-3.1C46.8,0.2,47.8,1.4,47.8,3.3z M43.8,3.3
		c0,1.4,0.4,2,1.3,2s1.3-0.6,1.3-2s-0.4-2-1.2-2C44.3,1.3,43.8,1.9,43.8,3.3z"/>
</g>
</svg>
